Introduction to R, databases and reproducibility for AMR Epidemiologists: Logistic Regression
…
These can also be presented using broom:

R

# as Log-Odds
tidy(coamox_trust_logit)

OUTPUT

# A tibble: 240 × 5
   term         estimate std.error statistic  p.value
   <chr>           <dbl>     <dbl>     <dbl>    <dbl>
 1 age_years_sd   0.0555   0.00668      8.31 9.44e-17
 2 sex_male       0.349    0.212        1.64 1.00e- 1
 3 trst_cdR0A    -2.83     1.47        -1.92 5.47e- 2
 4 trst_cdR1A    -4.89     1.19        -4.12 3.85e- 5
 5 trst_cdR1C    -5.35     1.24        -4.31 1.64e- 5
 6 trst_cdR1D    -3.39     1.47        -2.30 2.12e- 2
 7 trst_cdR1E    -4.43     1.32        -3.35 8.18e- 4
 8 trst_cdR1F    -2.80     1.46        -1.91 5.56e- 2
 9 trst_cdR1G    -4.05     1.50        -2.71 6.82e- 3
10 trst_cdR1H    -4.30     1.38        -3.12 1.81e- 3
# ℹ 230 more rows

R

# as ORs
tidy(coamox_trust_logit, exp = TRUE)

OUTPUT

# A tibble: 240 × 5
   term         estimate std.error statistic  p.value
   <chr>           <dbl>     <dbl>     <dbl>    <dbl>
 1 age_years_sd  1.06      0.00668      8.31 9.44e-17
 2 sex_male      1.42      0.212        1.64 1.00e- 1
 3 trst_cdR0A    0.0589    1.47        -1.92 5.47e- 2
 4 trst_cdR1A    0.00754   1.19        -4.12 3.85e- 5
 5 trst_cdR1C    0.00476   1.24        -4.31 1.64e- 5
 6 trst_cdR1D    0.0336    1.47        -2.30 2.12e- 2
 7 trst_cdR1E    0.0119    1.32        -3.35 8.18e- 4
 8 trst_cdR1F    0.0606    1.46        -1.91 5.56e- 2
 9 trst_cdR1G    0.0174    1.50        -2.71 6.82e- 3
10 trst_cdR1H    0.0136    1.38        -3.12 1.81e- 3
# ℹ 230 more rows
…
